#curl -X GET -H "Content-Type: application/json" -H "Authorization: Bearer b660b84890dc6380d1b7ec8c3c2dfac26ad711059bdc21726b6863ec65888e5a" "https://api.digitalocean.com/v2/sizes"
{"sizes":[{"slug":"512mb","memory":512,"vcpus":1,"disk":20,"transfer":1.0,"price_monthly":5.0,"price_hourly":0.007439999841153622,"regions":["ams2","ams3","blr1","fra1","lon1","nyc1","nyc2","nyc3","sfo1","sfo2","sgp1","tor1"],"available":true},{"slug":"s-1vcpu-1gb","memory":1024,"vcpus":1,"disk":25,"transfer":1.0,"price_monthly":5.0,"price_hourly":0.007439999841153622,"regions":["ams2","ams3","blr1","fra1","lon1","nyc1","nyc2","nyc3","sfo1","sfo2","sgp1","tor1"],"available":true},{"slug":"1gb","memory":1024,"vcpus":1,"disk":30,"transfer":2.0,"price_monthly":10.0,"price_hourly":0.01487999968230724,"regions":["ams2","ams3","blr1","fra1","lon1","nyc1","nyc2","nyc3","sfo1","sfo2","sgp1","tor1"],"available":true},{"slug":"s-1vcpu-2gb","memory":2048,"vcpus":1,"disk":50,"transfer":2.0,"price_monthly":10.0,"price_hourly":0.01487999968230724,"regions":["ams2","ams3","blr1","fra1","lon1","nyc1","nyc2","nyc3","sfo1","sfo2","sgp1","tor1"],"available":true},{"slug":"s-1vcpu-3gb","memory":3072,"vcpus":1,"disk":60,"transfer":3.0,"price_monthly":15.0,"price_hourly":0.02232000045478344,"regions":["ams2","ams3","blr1","fra1","lon1","nyc1","nyc2","nyc3","sfo1","sfo2","sgp1","tor1"],"available":true},{"slug":"s-2vcpu-2gb","memory":2048,"vcpus":2,"disk":60,"transfer":3.0,"price_monthly":15.0,"price_hourly":0.02232000045478344,"regions":["ams2","ams3","blr1","fra1","lon1","nyc1","nyc2","nyc3","sfo1","sfo2","sgp1","tor1"],"available":true},{"slug":"s-3vcpu-1gb","memory":1024,"vcpus":3,"disk":60,"transfer":3.0,"price_monthly":15.0,"price_hourly":0.02232000045478344,"regions":["ams2","ams3","blr1","fra1","lon1","nyc1","nyc2","nyc3","sfo1","sfo2","sgp1","tor1"],"available":true},{"slug":"2gb","memory":2048,"vcpus":2,"disk":40,"transfer":3.0,"price_monthly":20.0,"price_hourly":0.02975999936461449,"regions":["ams2","ams3","blr1","fra1","lon1","nyc1","nyc2","nyc3","sfo1","sfo2","sgp1","tor1"],"available":true},{"slug":"s-2vcpu-4gb","memory":4096,"vcpus":2,"disk":80,"transfer":4.0,"price_monthly":20.0,"price_hourly":0.02975999936461449,"regions":["ams2","ams3","blr1","fra1","lon1","nyc1","nyc2","nyc3","sfo1","sfo2","sgp1","tor1"],"available":true},{"slug":"4gb","memory":4096,"vcpus":2,"disk":60,"transfer":4.0,"price_monthly":40.0,"price_hourly":0.05951999872922897,"regions":["ams2","ams3","blr1","fra1","lon1","nyc1","nyc2","nyc3","sfo1","sfo2","sgp1","tor1"],"available":true},{"slug":"c-2","memory":4096,"vcpus":2,"disk":25,"transfer":4.0,"price_monthly":40.0,"price_hourly":0.05999999865889549,"regions":["ams2","ams3","blr1","fra1","lon1","nyc1","nyc2","nyc3","sfo1","sfo2","sgp1","tor1"],"available":false},{"slug":"s-4vcpu-8gb","memory":8192,"vcpus":4,"disk":160,"transfer":5.0,"price_monthly":40.0,"price_hourly":0.05951999872922897,"regions":["ams2","ams3","blr1","fra1","lon1","nyc1","nyc2","nyc3","sfo1","sfo2","sgp1","tor1"],"available":true},{"slug":"8gb","memory":8192,"vcpus":4,"disk":80,"transfer":5.0,"price_monthly":80.0,"price_hourly":0.1190500035881996,"regions":["ams2","ams3","blr1","fra1","lon1","nyc1","nyc2","nyc3","sfo1","sfo2","sgp1","tor1"],"available":true},{"slug":"s-6vcpu-16gb","memory":16384,"vcpus":6,"disk":320,"transfer":6.0,"price_monthly":80.0,"price_hourly":0.1190500035881996,"regions":["ams2","ams3","blr1","fra1","lon1","nyc1","nyc2","nyc3","sfo1","sfo2","sgp1","tor1"],"available":true},{"slug":"16gb","memory":16384,"vcpus":8,"disk":160,"transfer":6.0,"price_monthly":160.0,"price_hourly":0.2381000071763992,"regions":["ams2","ams3","blr1","fra1","lon1","nyc1","nyc2","nyc3","sfo1","sfo2","sgp1","tor1"],"available":true},{"slug":"s-8vcpu-32gb","memory":32768,"vcpus":8,"disk":640,"transfer":7.0,"price_monthly":160.0,"price_hourly":0.2381000071763992,"regions":["ams2","ams3","blr1","fra1","lon1","nyc1","nyc2","nyc3","sfo1","sfo2","sgp1","tor1"],"available":false},{"slug":"s-12vcpu-48gb","memory":49152,"vcpus":12,"disk":960,"transfer":8.0,"price_monthly":240.0,"price_hourly":0.3571400046348572,"regions":["ams2","ams3","blr1","fra1","lon1","nyc1","nyc2","nyc3","sfo1","sfo2","sgp1","tor1"],"available":false},{"slug":"32gb","memory":32768,"vcpus":12,"disk":320,"transfer":7.0,"price_monthly":320.0,"price_hourly":0.4761900007724762,"regions":["ams2","ams3","blr1","fra1","lon1","nyc1","nyc2","nyc3","sfo1","sfo2","sgp1","tor1"],"available":false},{"slug":"s-16vcpu-64gb","memory":65536,"vcpus":16,"disk":1280,"transfer":9.0,"price_monthly":320.0,"price_hourly":0.4761900007724762,"regions":["ams2","ams3","blr1","fra1","lon1","nyc1","nyc2","nyc3","sfo1","sfo2","sgp1","tor1"],"available":false},{"slug":"48gb","memory":49152,"vcpus":16,"disk":480,"transfer":8.0,"price_monthly":480.0,"price_hourly":0.7142900228500366,"regions":["ams2","ams3","blr1","fra1","lon1","nyc1","nyc2","nyc3","sfo1","sfo2","sgp1","tor1"],"available":false}],"links":{"pages":{"last":"https://api.digitalocean.com/v2/sizes?page=2","next":"https://api.digitalocean.com/v2/sizes?page=2"}},"meta":{"total":24}}